{
    "status": 1,
    "data": {
        "totalElements": 157,
        "totalPages": 16,
        "number": 0,
        "first": false,
        "last": false,
        "content": [
            {
                "company": null,
                "userAvator": "",
                "userEmail": "",
                "userName": "testm07120106",
                "userMobile": "14507120106",
                "userId": "437a085f-31d1-4b34-a7b7-d1226ae82256",
                "userCode": "YHT-7211720-72121741523134293149",
                "roleIds": null,
                "roles": null,
                "userAvatorNew": "",
                "orgId": null,
                "orgName": null,
                "orgCode": null,
                "logo": null,
                "redPacketsNum": 0,
                "gloriesNum": 0,
                "admin": false
            },
            {
                "company": null,
                "userAvator": "",
                "userEmail": "",
                "userName": "testm07120114",
                "userMobile": "14507120114",
                "userId": "499ed72b-0376-4741-8581-ff2aad8d5fe2",
                "userCode": "YHT-7211728-72121821523134293149",
                "roleIds": null,
                "roles": null,
                "userAvatorNew": "",
                "orgId": null,
                "orgName": null,
                "orgCode": null,
                "logo": null,
                "redPacketsNum": 0,
                "gloriesNum": 0,
                "admin": true
            },
            {
                "company": null,
                "userAvator": "",
                "userEmail": "",
                "userName": "testm07120122",
                "userMobile": "14507120122",
                "userId": "65e72078-9377-4997-8b3d-7fe9e6b68fed",
                "userCode": "YHT-7211736-72121901523134293149",
                "roleIds": null,
                "roles": null,
                "userAvatorNew": "",
                "orgId": null,
                "orgName": null,
                "orgCode": null,
                "logo": null,
                "redPacketsNum": 0,
                "gloriesNum": 0,
                "admin": false
            },
            {
                "company": null,
                "userAvator": "",
                "userEmail": "",
                "userName": "testm07120113",
                "userMobile": "14507120113",
                "userId": "884b781b-f440-436c-85de-c6bb2184a270",
                "userCode": "YHT-7211727-72121811523134293149",
                "roleIds": null,
                "roles": null,
                "userAvatorNew": "",
                "orgId": null,
                "orgName": null,
                "orgCode": null,
                "logo": null,
                "redPacketsNum": 0,
                "gloriesNum": 0,
                "admin": false
            },
            {
                "company": null,
                "userAvator": "",
                "userEmail": "",
                "userName": "testm07120145",
                "userMobile": "14507120145",
                "userId": "a95fa76a-99a7-4000-823b-0d224ed95763",
                "userCode": "YHT-7211759-72122131523134293151",
                "roleIds": null,
                "roles": null,
                "userAvatorNew": "",
                "orgId": null,
                "orgName": null,
                "orgCode": null,
                "logo": null,
                "redPacketsNum": 0,
                "gloriesNum": 0,
                "admin": false
            },
            {
                "company": null,
                "userAvator": "",
                "userEmail": "",
                "userName": "testm07120123",
                "userMobile": "14507120123",
                "userId": "ce84125c-c1c8-457e-9794-fb873c1839b3",
                "userCode": "YHT-7211737-72121911523134293150",
                "roleIds": null,
                "roles": null,
                "userAvatorNew": "",
                "orgId": null,
                "orgName": null,
                "orgCode": null,
                "logo": null,
                "redPacketsNum": 0,
                "gloriesNum": 0,
                "admin": false
            },
            {
                "company": null,
                "userAvator": "",
                "userEmail": "",
                "userName": "testm07120120",
                "userMobile": "14507120120",
                "userId": "d4ef611b-2719-487e-93fa-92d9650caf2d",
                "userCode": "YHT-7211734-72121881523134293149",
                "roleIds": null,
                "roles": null,
                "userAvatorNew": "",
                "orgId": null,
                "orgName": null,
                "orgCode": null,
                "logo": null,
                "redPacketsNum": 0,
                "gloriesNum": 0,
                "admin": false
            },
            {
                "company": null,
                "userAvator": "",
                "userEmail": "",
                "userName": "testm07120116",
                "userMobile": "14507120116",
                "userId": "f3b82011-7c35-4800-9ed9-c8ece9bdeb84",
                "userCode": "YHT-7211730-72121841523134293149",
                "roleIds": null,
                "roles": null,
                "userAvatorNew": "",
                "orgId": null,
                "orgName": null,
                "orgCode": null,
                "logo": null,
                "redPacketsNum": 0,
                "gloriesNum": 0,
                "admin": false
            },
            {
                "company": null,
                "userAvator": "",
                "userEmail": "",
                "userName": "testm07120112",
                "userMobile": "14507120112",
                "userId": "f4019f63-448e-4625-b693-13d835490237",
                "userCode": "YHT-7211726-72121801523134293149",
                "roleIds": null,
                "roles": null,
                "userAvatorNew": "",
                "orgId": null,
                "orgName": null,
                "orgCode": null,
                "logo": null,
                "redPacketsNum": 0,
                "gloriesNum": 0,
                "admin": false
            },
            {
                "company": null,
                "userAvator": "",
                "userEmail": "",
                "userName": "testm07120138",
                "userMobile": "14507120138",
                "userId": "fdd5cea6-a274-4c2d-9c42-a7fed179cb0a",
                "userCode": "YHT-7211752-72122061523134293150",
                "roleIds": null,
                "roles": null,
                "userAvatorNew": "",
                "orgId": null,
                "orgName": null,
                "orgCode": null,
                "logo": null,
                "redPacketsNum": 0,
                "gloriesNum": 0,
                "admin": false
            }
        ]
    }
}